,plant,year,status,VvWRKY,VvCKO,VvOLP,VvSAMT,VvHP,VvACYT,VvLOX,VvSUSY,VvGLC2,VvDMR6,VvGLC3,VvINV2,VvAGPL,VvADH1,VvGLC1,VvCASY
69,12,1,0,-0.9704123259999999,0.00219522,0.834240964,0.47475401100000003,0.417753709,0.017667516,0.062638668,-1.156494041,0.472614518,0.64923383,,1.6677506780000002,-0.644738832,0.295220896,1.428580662,
58,1,1,0,1.659433825,1.8690178569999998,-0.127468136,,-0.315834778,1.304451567,-0.593874893,0.532755985,-0.209752524,-0.349925693,,-1.0562420959999999,0.541593594,1.903151389,-0.25447009,0.274322086
60,3,1,0,0.251001275,-0.33542585,-0.6732174740000001,,-0.105478659,0.18698120699999998,-0.65993111,-1.514583908,-0.39775311,-0.728241046,-0.254624334,-0.8338753390000001,-1.161194828,-1.062933988,-0.828495283,
61,4,1,0,0.7645025759999999,-0.246872747,-0.470619112,,-0.767682758,-0.524136296,-0.6101758629999999,-1.894730035,-0.354795642,-0.305156834,-0.838009633,-1.000650407,-1.179926393,0.094012765,-0.9266396170000001,0.723360056
62,5,1,0,-0.559660567,0.362060558,-0.702974109,-0.6202939279999999,-0.695538963,-0.8289009390000001,-1.042098287,0.8168925090000001,-0.40782457,-0.684212169,,,-1.129975554,-0.920700654,-1.077904843,-0.757631281
63,6,1,0,-1.6788174319999998,,-0.627632843,,-0.65718884,0.017667516,-0.946423315,-0.9865310970000001,-0.23251581699999999,-0.35732550399999996,-0.44142207899999997,-1.0562420959999999,-1.18349431,0.10962374,0.468843361,-0.284935564
64,7,1,0,0.348083575,,0.85513392,,-0.38228301,0.08539299199999999,-0.30120323600000004,0.017677444,0.043276892000000004,0.067978651,,,-0.308462649,1.068831467,0.677501627,-0.393539791
65,8,1,0,-0.904376651,,-0.21483868,,-0.241602609,-1.336842012,0.032700286,-1.6196754999999998,-0.29364291600000003,-0.30034695699999997,-0.732654888,0.611508582,-0.675066127,-1.151396183,-0.16537106699999998,
66,9,1,0,-0.025461517000000003,,,,,0.08539299199999999,-0.187948787,0.282352563,-0.33868258799999995,-0.09944208,,0.72269196,0.21780512,-0.025671383,-0.608929834,
67,10,1,0,-0.21346607199999998,,-0.69474355,-0.531080758,-0.329883832,0.254706683,0.377684206,0.47696662100000004,-0.202205335,-0.37120015100000003,-0.481888111,-0.111183379,0.301651171,0.49816357899999997,0.047295302000000004,
68,11,1,0,0.854439224,-0.668524578,-0.620351965,-0.82321016,-0.003338233,-0.050057961,-0.078210233,,-0.430837728,-0.41578401299999995,,-0.77828365,-0.508266004,-0.785405531,,
70,13,1,0,0.308166487,,-0.282582508,-0.331663082,0.385478854,0.08539299199999999,0.598546363,1.38516556,-0.046456485,0.220229769,,0.722691961,0.500562547,0.65080423,,
71,14,1,0,-0.558921361,,0.326795379,0.068921548,0.14987240699999999,-0.083920699,0.43532358200000004,-0.523349639,0.036530551,0.562471042,0.294017403,0.889467028,0.15269063300000002,-0.743776263,1.857203833,
72,15,1,1,7.228113955,-0.31255976,17.25230574,38.81367682,3.610876057,-0.320959867,2.1344599459999998,2.624208397,8.969973218,7.3795472129999995,58.3262931,21.45839206,15.42783559,0.701106263,7.885687047999999,
73,16,1,0,-0.46528868700000003,,-0.335448018,1.6423969809999999,2.864187776,-0.320959867,0.208388514,-0.267756508,,-0.087972373,0.23893863699999998,0.277958446,2.882147191,-0.424618538,,
59,2,1,1,7.806911727,-0.09418718699999999,17.64547319,23.706038600000003,1.3571418640000001,0.051530254000000004,0.142119213,2.072801899,6.784421553,7.479629662000001,12.130842800000002,9.339403793999999,10.91174456,0.125234716,2.115238937,1.762628054
75,18,1,1,6.991568247999999,-0.46812831299999996,13.11961571,112.55186100000002,12.14605659,-0.659587249,3.8001420319999997,37.64306203,3.390704725,5.455226282000001,520.0224162,47.14175249,62.34416109,15.15166607,8.668885058999999,
74,17,1,1,10.41778495,0.43676398899999996,21.04880912,33.00257577,6.474605023,-0.62572451,6.172732181000001,1.273586833,,12.94291036,19.38652503,33.91093045,81.97216486,0.460003416,2.8375503610000004,
86,29,1,1,1.50888234,-0.7207576240000001,11.91225609,15.84565855,2.4778387669999997,-0.7950382009999999,-0.739092028,-0.270351363,,4.871566164,3.816095022,7.393694671,23.54752286,0.012488781000000001,,-1.153293767
85,28,1,1,6.587962142,,22.70125201,23.88971278,0.467305106,0.153118468,1.069250179,5.097104364,6.988458312000001,17.74039302,3.045707604,18.06729901,27.92535711,2.959494075,7.53407089,5.30140873
84,27,1,1,6.036514968,-0.7569363570000001,15.71730659,46.97930586,2.290644604,-0.8966264159999999,2.920422383,4.680630279,6.161547882000001,13.37487434,41.39994444,21.95871726,26.53030153,-0.093318943,5.383074237000001,3.587144631
83,26,1,1,0.767705799,-0.7425779220000001,15.52895342,24.38038522,1.8678439930000001,0.39015763600000003,1.834223786,-0.841219267,12.52440415,6.92390383,4.092919471,14.28706414,27.04408159,0.6924334990000001,3.117162865,
82,25,1,0,-0.194000332,-0.647156513,2.010577705,-0.258193412,-0.006186014,0.69492228,2.1072916630000003,0.103307629,2.0971563890000002,2.120686309,1.722080035,1.278608853,0.31057096300000003,0.7722229290000001,1.1454949220000001,
87,30,1,1,4.976740931,,25.63417986,21.20457126,0.365354532,-1.235253798,3.19018745,0.33943935299999994,14.24684164,14.81654258,2.7979042489999997,23.62646794,65.66410794,0.810383092,7.019463097999999,7.048063849
80,23,1,1,11.4938215,-0.453261115,39.47671295,54.99974484,2.555488273,-0.862763678,4.072144486,9.237194095,,13.819603,,37.07965673,68.00466153,1.965595292,,
79,22,1,1,6.331950697000001,-0.103005753,21.5467579,33.98392065,2.650604172,-1.167528321,2.703715375,4.960874523,2.611922035,7.121663788999999,7.519452292,22.62581753,87.81641304,2.132112365,,
78,21,1,1,4.545537824,,29.21035751,43.78599913,0.415855188,-1.167528321,1.492968847,3.378013516,9.894683162,14.85705655,15.25480006,23.23732611,22.12035603,-0.216472196,7.91616758,
77,20,1,1,2.114537905,1.5439180209999999,24.71583947,11.59841191,0.264732923,-0.524136296,0.582245393,3.42472089,15.61754684,7.199361808,9.578825903,10.50682927,15.94875148,-0.21820674899999998,9.141698911,
76,19,1,1,7.016208428,,11.48331738,143.9557718,19.99435225,-1.4384302269999998,0.595456636,22.65907698,9.065741781,5.420262172999999,419.91839360000006,34.74480579,65.88621077,22.91379008,7.398188107999999,
81,24,1,1,3.70136534,-0.441559555,31.752650399999997,28.45882654,2.2475481790000003,0.830373232,0.531424723,0.469182059,13.25347022,14.62803239,3.415317803,12.84168022,18.69872356,0.871092442,4.855230231,
46,19,2,1,1.082042294,,12.62633378,2.31154459,0.002316478,-1.1867369140000001,-0.315196572,-0.063517825,5.185811256,5.274570977,8.949428676,0.06050712900000001,5.806923405,-3.095413445,1.795245828,
47,20,2,0,,,-0.274125343,0.295187423,0.35673760600000004,-0.72362007,-0.323218042,4.525644983,0.062299510999999995,-0.13789728,-0.61448542,,0.37678510600000004,,1.391345658,
48,21,2,1,,-0.8262407709999999,11.15780516,4.109917197,1.4408492919999998,,1.23294707,1.826137449,10.58842481,14.34131717,-0.39390091,0.8225374990000001,0.663209984,-2.120274146,3.211910601,
49,22,2,1,-0.767577965,,15.85709675,,1.128124768,-1.1867369140000001,-0.467604495,-0.603419331,4.328569991,3.7232265719999997,1.370775167,,3.0023464810000005,-2.045550828,1.523969594,
50,23,2,0,,0.553597941,4.334795253999999,0.40417970200000003,-0.956705398,1.5919641530000002,-0.33123951100000004,5.87539875,3.291906136,,,0.22824966300000002,0.519997545,,1.294891886,2.198091508
53,26,2,0,,,,,,,,,,,,,,,,
52,25,2,0,-0.682462696,,-0.45486732700000004,,-0.831615588,-0.72362007,-0.555840662,0.07145755200000001,,,,-0.7877908309999999,,-0.270872027,,
54,27,2,1,0.921632749,1.72840038,19.29119444,0.213443214,,0.665730464,0.182134546,5.740423373,1.936268787,0.344743201,1.213214803,1.129266704,0.806422422,,0.282127283,5.753384688
55,28,2,1,0.18833197399999999,-0.8096162090000001,31.46868563,0.594916191,-0.7065257779999999,-1.1867369140000001,-0.178831588,0.881309812,4.9864528219999995,8.170413867,,-0.116820694,4.14804599,,1.101984343,1.444851427
56,29,2,0,,-0.355211492,3.431085333,0.594916191,0.14825459,0.20261362,-0.226960406,1.016285189,2.5742157740000002,-0.344743202,-0.803557856,-0.43313518700000003,1.450878396,-1.386117548,0.028936132000000003,1.309268213
45,18,2,1,-1.3142798820000001,,9.169643333,-0.01816538,-1.5821544490000001,-1.1867369140000001,-0.315196572,-2.088148475,1.547519841,-0.20684592100000002,-1.150190657,-0.409171968,0.567735025,-4.997121886,-0.9356015870000001,
57,30,2,1,0.672834272,-0.610121455,7.317037994,0.772028645,0.335889305,-0.955178492,-0.066531013,0.47638368299999995,4.2886983039999995,6.998286983,8.429479473999999,0.266590813,1.952121931,-3.110358109,0.9030484390000001,1.459916229
51,24,2,0,,,,,,,,,,,,,,,,
44,17,2,0,-1.238985606,,1.75922198,0.06357883,-1.457064638,0.897288887,-0.395411269,-0.940857773,0.779989872,-0.7929093629999999,-1.134434621,-0.39958668,-0.530227005,-1.7055597319999998,-0.40510584200000005,
37,10,2,0,-0.296170324,-0.7819086040000001,-0.590423815,-0.522254671,-0.47719446,-0.260503225,0.39871422700000003,,-0.137058923,-0.172371601,1.559847604,-0.011382528999999999,-0.482489525,,-0.22425501899999997,
42,15,2,1,-0.39438024899999996,-0.859489897,13.43967271,0.826524785,0.742431187,-1.1867369140000001,0.302456591,1.421211319,6.391929779,3.895598173,13.34536283,1.047791759,5.377286088,-2.8077286710000005,2.832123875,-0.37798956799999994
41,14,2,0,0.02792243,-0.748659478,-0.6807948070000001,-0.522254671,0.596493076,,-0.427497148,-0.198493201,-0.615519164,-0.655012082,-0.992630294,0.966316814,1.582156465,,,
40,13,2,0,,,,,,,,,,,,,,,,
39,12,2,0,3.475090805,,8.762973866,1.5758467040000002,5.631357926000001,,3.29446477,3.8507680989999997,5.066196195,5.240096657,9.973571041,4.311582213,0.161966448,5.486559617999999,3.3083643730000003,-0.0013695270000000002
38,11,2,0,0.754675877,,-0.500052823,-0.549502741,2.003753438,-1.1867369140000001,-0.174820853,0.408895995,-0.725166303,-0.36198036200000006,0.866582002,-0.49543955700000003,-0.39894893600000003,0.35493576,-0.682410436,-0.543702385
36,9,2,0,-0.342001622,-0.676619706,-0.816351295,-0.549502741,1.190669673,0.20261362,-0.49166890399999996,-0.873370084,,-0.7239607220000001,-1.024142366,-0.806961406,-0.33927708700000003,,-1.068225523,-1.281877664
35,8,2,0,-0.469674525,,0.290693358,0.772028645,-0.675253326,-0.028944802999999998,1.337226176,-0.333468578,0.17194664899999998,-0.741197883,,0.32410254,,,0.529290073,0.480704124
34,7,2,0,-0.266707346,-0.288713241,-0.45486732700000004,-0.031789415,0.11698213800000001,1.360405731,-0.427497147,1.218748254,0.092203276,0.741197883,0.6775095659999999,-0.083272187,0.269375778,,0.047021214000000006,0.90251857
33,6,2,0,0.40439381,0.7641757370000001,0.132544122,-0.168029764,-0.24786314199999998,,-0.267067754,0.881309812,0.640438968,0.379217521,0.204828473,0.285761389,-0.196064648,-0.446471825,1.632480088,-0.136952742
32,5,2,0,-0.342001622,-0.266547157,-0.6807948070000001,-0.522254671,-1.3319748279999999,-0.260503225,-0.507711844,-0.8058823959999999,-0.7451021459999999,0.24132024100000002,-0.582973347,-0.615255653,-0.458620786,,-0.9114881440000001,-0.6868180009999999
31,4,2,0,-0.40092757700000003,0.160149955,0.49402809,-0.386014322,-1.081795208,-0.72362007,-0.18685305800000002,0.206432929,-0.276609827,0.172371601,0.015756036,,0.090360229,,-0.212198298,-0.332795163
30,3,2,0,0.152321669,0.079797902,-0.274125343,-0.208901869,-0.508466913,-0.028944802999999998,-0.210917467,-0.873370084,-0.605551242,-0.741197883,0.126048292,-0.43313518700000003,-0.33927708700000003,-1.731712893,-0.44730436700000004,-0.58136439
28,1,2,0,1.4519663459999999,1.0523348259999998,0.968475799,2.25704845,0.169102891,0.43417204200000004,1.5417736519999998,0.341408306,1.059091679,1.258312684,0.5357052379999999,1.215534294,-0.33927708700000003,-0.917228727,1.4636859869999999,0.691611347
43,16,2,0,-1.3371955309999999,,0.5166208379999999,,-0.8211914379999999,0.43417204200000004,-0.37535759399999996,-0.940857773,0.34140131799999995,-0.310268881,-0.898094075,-0.476268982,-0.721176923,0.9247010590000001,0.221843675,
29,2,2,1,0.20797396,-0.22221499,4.83183571,0.09082689999999999,1.0447315609999999,-0.028944802999999998,0.23828483399999997,4.795595736,3.830173906,3.6198036119999997,0.315120728,-0.078479543,5.99787332,1.0778838609999999,-0.44730436700000004,1.6256290469999999
0,1,3,0,0.155783592,-0.251323599,-0.413733655,0.746461266,,0.544957354,-0.510451102,-0.558941545,-0.502055783,-0.3310985,-0.286441895,0.104939289,-0.426076904,-0.347844246,-0.651546292,-0.14725291599999998
26,29,3,0,6.915369015,2.98605733,10.08057139,3.3042561160000004,1.4145574669999998,1.156878944,5.854244454,5.950393055,13.57091076,2.174027942,0.139388152,6.277365276,6.2439751470000004,4.841797965,1.9959022919999998,7.14829717
1,2,3,0,-0.34213989899999997,-0.049056657000000004,-0.967326655,0.34472564,-0.8571363390000001,-0.6337177270000001,-1.134587255,,-1.4552004219999999,-0.44569574799999995,-0.228458926,-0.8417283590000001,,-0.995586128,,-0.8539846659999999
2,3,3,0,-0.590884678,,,-1.080234018,-0.893772723,-0.628364783,-1.300613604,-1.679312689,-1.365063928,-0.292441834,-0.495679795,-1.293697265,-0.792277467,-0.565027679,-0.978246095,
3,4,3,0,-0.296935276,0.143339711,0.180929535,1.267356963,3.2822939669999998,0.700687985,0.380662215,0.133546527,0.7149182540000001,-0.15045475,1.549035062,,1.4233201180000001,1.6362003390000002,0.90443837,0.09196616099999999
4,5,3,0,-0.764565107,-1.028960361,-0.7798862740000001,,-0.38807519799999995,0.798995645,,0.582830804,0.22044879,-0.193138682,,0.030412400000000003,-0.836310972,-0.295448222,-0.490462776,-0.498029774
5,6,3,0,-0.720418282,,0.133517475,-0.986555435,-0.7005296390000001,-0.336012899,-1.0130879990000001,-1.452090179,-0.502217932,-0.41306600200000004,-0.547864241,-1.421339282,-0.937171146,-0.641643521,-0.847287261,-1.307292525
6,7,3,0,1.0989815920000001,,2.078632265,-0.102107511,0.19184417199999998,-0.545894671,0.48283632,-0.053337083,,2.718620677,-0.159777335,1.072074055,0.966378683,0.714145193,0.8593948379999999,0.369227168
7,8,3,0,-0.854443545,-0.936482138,0.024195761,-0.7656629309999999,-0.11001790300000001,-0.7807129429999999,-0.457775346,0.231816078,-0.7032269320000001,0.005447254,-0.491924175,0.163422365,-0.6683506229999999,-0.29926730100000004,0.025586931,0.18726399
9,10,3,0,,,,,-0.810565036,-1.142226338,,,,-0.5526683379999999,,-1.469541907,,-1.164943898,,
10,11,3,0,-0.265971534,0.333776793,-0.06926217700000001,0.796726675,-0.031344976000000004,2.970847327,0.308309185,0.363347617,0.74314143,-0.524751609,-0.282600303,0.7502975270000001,0.109547691,0.618562296,0.733466683,0.01821867
11,12,3,0,0.768280695,2.561997823,-0.254950695,5.406545689,1.567110456,-0.181357073,-0.247243077,-1.472329042,-0.664080528,-0.411994855,0.372690245,1.3739273280000002,-0.14778007199999998,0.32210142399999997,1.967330644,5.037019432
12,13,3,0,0.43925159399999997,1.204585904,-0.706756354,0.573609405,0.44896761399999996,-0.185387587,-1.006046241,,-0.900300964,-0.41238885,-0.025548843999999998,0.098460145,-0.691493499,-0.298230464,-0.586909638,0.5798234329999999
13,14,3,0,,-1.104673281,-0.872115086,-1.172391322,-0.10062128099999999,-0.532280491,0.13857217800000002,-0.841359704,,-0.34273962,,-0.657281776,1.3371807359999999,-0.03534899,-1.14034233,-0.887890827
8,9,3,0,2.228442981,1.6546169119999998,-1.0151430909999999,,-0.506629628,-0.45657532,0.254313474,0.180128287,-1.0092825220000001,-0.341900937,-0.17952473800000002,0.357749599,-0.455029612,-0.27824105600000004,-0.57948949,1.674018739
15,16,3,0,-0.138281883,-0.41682997899999996,0.120188701,-0.52323082,-0.582102455,-0.54725925,0.60288824,-0.020873189,1.02342682,-0.44958784399999996,-0.316436559,-0.00256686,0.137413446,-0.092359051,0.07972067,0.368104253
14,15,3,0,,4.4664922030000005,-0.301471152,2.530615575,,0.069751852,2.8347922060000004,,0.313492179,,1.4602073759999998,3.8361923989999998,0.7921795359999999,1.641766083,0.782236948,5.186593171
24,26,3,0,-0.19371992100000002,,-0.21375233899999999,,-0.761834041,-1.121615397,-0.633992276,-0.992463368,0.523976653,0.38824461,,-0.349427462,-0.261793889,-0.7019272790000001,,-1.3837159119999998
23,25,3,0,-0.9568522559999999,0.226324494,-0.304627087,1.5302385580000002,-0.459463516,1.10207976,1.490091991,1.275677288,2.21378682,-0.600419833,,,0.465617035,0.422456239,1.5713749780000001,
22,24,3,1,2.140229746,0.318089721,45.90799835,8.32577144,3.22024172,-1.126762864,0.569029919,0.134981288,31.51685288,13.66619757,-0.002173648,3.2771720889999996,6.951098327,-0.986147375,6.1727240189999995,1.506486114
21,23,3,1,19.48610768,13.39825816,168.5546,36.72740636,,-0.11320714,9.864023215,20.59813347,53.94306783,16.34053416,4.54226648,13.71886071,63.72302855,2.548262189,24.52882621,12.13027796
20,22,3,1,-0.033288917,-0.5548032479999999,60.31266667,3.593566755,0.005366366,-0.014715077,12.70096121,1.1361473770000001,25.63942686,5.234303333,-0.527606432,2.630547831,45.18031043,0.7732393470000001,0.76152426,1.37558654
25,27,3,1,-1.5361063190000002,,-0.828600434,-0.814908328,-1.236126828,-0.327904454,-0.717571909,-1.534542127,-0.41401908200000004,-0.454555935,,-1.352472092,-0.169114667,-1.1405379820000001,-0.766883647,-1.224432081
27,30,3,0,2.9911623539999996,-1.291063473,7.544190907000001,-0.32513695,-0.34114150299999996,-0.765061552,6.247471525,1.109285896,5.599616182,0.21409182899999998,-0.21728111,0.7974630220000001,2.996504856,-0.355793019,0.096874308,1.325373266
18,19,3,1,-0.48995094200000006,-0.481200078,63.16567185,2.65225678,-0.6732897459999999,-1.38740751,3.19250728,-0.016206605,63.49437802,6.010538284,-0.309128263,2.4739095069999997,19.45919657,-0.84705293,8.646060356,1.3861723019999999
17,18,3,1,-1.171776933,-1.7486441480000001,70.22848442,-0.161169783,-1.383051454,-1.5531353959999998,0.082089358,,14.70348457,3.356265832,-0.53547088,-0.779858163,3.794813167,-1.596896932,0.541130979,-0.345900548
16,17,3,0,-0.515639317,-0.363060162,-0.7105741720000001,-0.26974692,0.36050456700000005,-0.809989051,-1.1258479190000001,-1.448738579,-1.206814289,-0.54715971,-0.20144744399999998,-0.775389425,-0.491644044,-1.168995135,-0.992370072,-1.031823538
19,20,3,0,0.9319709409999999,0.088611491,0.431101013,1.198291591,0.434426551,0.340291542,,1.2028828520000001,3.114793545,0.41396919200000004,-0.24118276,2.494130731,1.29881234,1.132899568,1.372587929,1.290212944
102,15,5,0,-1.783843501,-0.25297404,-0.185689451,,-1.545616544,-0.21442617600000002,-0.44682182600000003,-0.048505177000000003,4.182054994,0.679194515,-1.337433734,,-0.259420268,0.379342725,0.915102393,0.42422852200000005
103,16,5,0,-0.8709111740000001,0.578688824,-0.147726637,-0.033747723,-0.502831044,0.372915089,,-0.7160920270000001,0.115563562,0.523431969,-0.479700268,-0.053119214000000005,0.255422711,-0.420550479,-0.322244572,-0.609703601
104,17,5,0,,0.18269326,,-0.425964072,,-1.049989047,,-0.202273753,,-2.3318799969999997,,,,,,0.607761077
105,20,5,0,3.949291011,,-0.84559259,-0.521630777,,2.0204422980000003,,-0.634691028,-0.606363917,5.244897684,0.39978508700000004,,,,-0.527494739,0.45352184799999995
106,22,5,1,-1.116379421,,2.9594575689999996,,-1.62288025,0.6223020539999999,-0.7634657659999999,-0.331537763,,1.5344239290000001,-0.760076568,,0.109342066,,-0.295762947,
101,14,5,0,,,,,,-0.90461043,,,,,,-0.880521806,,,,
108,24,5,1,-0.035979757,-0.195950144,-0.38770540600000003,0.530290566,-1.3445665969999998,0.30299351,,-0.190824806,0.581575426,-1.602453576,0.0077954159999999995,0.831970635,1.165607036,-0.162040056,-0.05812369,0.440647356
110,26,5,1,-3.356974221,,,-0.881555918,,1.74396072,,,18.5970843,,,,,,,
111,27,5,0,2.126697279,-0.31790168399999996,5.625840913999999,0.308353359,-0.538872409,-0.5596639729999999,0.360317034,-0.018849921000000002,4.633637005,6.055987866000001,1.51483363,0.126119196,0.186615472,0.548886159,0.634444983,0.553294615
112,29,5,1,5.865629316000001,-1.284087073,6.086014941,4.93785467,1.377607759,-0.47468983200000003,1.941753651,-0.530479548,5.851638902,8.900343101,3.341424908,0.603263455,5.384902471,0.078410044,2.146501069,0.281396678
113,30,5,0,,,,,,-2.065599984,,,,,,,,,,
107,23,5,1,13.28636624,-0.815270596,11.62865021,2.014702185,-0.846825595,-3.906576895,2.2661584759999998,-0.08365565,18.00046265,5.243045400000001,-0.083059888,1.704699792,,-1.087188732,,3.611721713
109,25,5,0,,,,,,-0.508679488,,,,,,,,,,
100,13,5,0,-0.8589897879999999,-1.184513115,0.172126933,-0.646406478,-0.596734315,-0.23598533,-0.635619429,-1.073901789,0.20206344899999998,0.010569107,-0.627175835,-0.886714047,-0.8427339509999999,-0.996989606,-0.5388007770000001,-1.064672945
98,11,5,0,,,,,,-0.846342448,,,,,,,,,,
97,10,5,0,0.5968692529999999,-1.13116996,-1.067260104,,-0.625902988,-1.159532854,-0.9922619509999999,-1.133479002,-0.7052063559999999,-0.067894223,-0.973103823,-0.8599745790000001,-0.9653895259999999,-0.701665497,,-0.520210327
96,9,5,0,-0.91890458,-1.249533768,,-1.101343495,,0.789239825,,-1.470043556,-0.585765413,,-0.970184547,-0.58853464,-1.141743839,0.7140418390000001,-0.335079261,
95,8,5,0,-0.29783621600000004,0.266505327,-0.6598665420000001,-0.639145786,0.328070021,-0.305032889,-0.053586107,-0.25250222699999997,-0.43467947,-0.129757731,-0.313689961,-0.188641454,-0.282824199,-0.42579163,-0.392595201,-0.21029985699999998
94,7,5,0,0.303798415,1.617310008,0.704409935,1.707450132,0.041820254,0.352812635,0.49116294200000005,1.666455505,0.610065575,0.15810694,1.26119988,1.7114778640000001,2.274741726,1.708604425,0.620318855,1.822539931
93,6,5,0,-0.598560558,-0.047614968,1.23513372,0.46817830200000005,-0.8865298659999999,1.088154576,1.694164064,0.43368867,0.049439123,-0.699673155,0.096563604,0.413817604,0.1804871,0.367108134,0.530946171,0.37238401299999996
92,5,5,0,1.138481195,-0.15926095,-0.492572341,-0.560358093,1.4753889269999998,0.652601405,-1.112694363,-0.0057616559999999995,-0.523630804,0.531996546,0.38263229600000004,-0.435117545,-0.536682145,0.165320148,-0.420015549,-0.8122313290000001
91,4,5,0,0.543700125,-0.569326465,-0.905201295,-0.48351455200000004,1.8515932780000002,-0.8687756209999999,0.15489662,0.481601151,-0.594876863,-0.48667471700000003,,-0.613463634,-0.582252695,-1.181171792,-0.5036490770000001,0.558700171
90,3,5,0,,,0.535855382,0.086651227,-0.42272788200000005,0.43467915,0.084843012,,,,0.358325913,0.524111773,,,,
89,2,5,0,,,,,,,,,,,,,,,,
88,1,5,0,0.371840771,0.385651058,0.26078909899999997,0.095439814,-0.032701816,0.8174997970000001,1.1290557509999999,0.472123333,1.3225730359999999,0.738000433,0.45932674799999995,0.760454418,0.8341881520000001,0.46234189200000003,1.471053935,-0.049597607
99,12,5,0,-1.336736745,-0.535668648,-0.17416111,-0.5397546679999999,-0.141363127,-0.451868206,5.194983618,-0.806230397,0.394990513,-1.695098737,-1.375430381,-0.216300427,,0.09839111199999999,-0.058731252000000005,-0.47200904299999996
128,15,6,0,0.7186864470000001,0.834768223,,,0.042259264000000005,,,0.810587073,-0.288549017,-0.200732187,1.107181711,0.990880083,,0.44005854200000005,-0.24507985699999998,2.017966462
129,16,6,0,,0.441412134,,2.074527737,,-0.9826927590000001,,0.761333849,-0.285464761,,0.5958283289999999,2.094175958,0.728081613,,,
130,17,6,0,-0.562556339,-0.289414888,,1.2838713590000002,-0.282110623,2.227705647,-0.641330211,-0.13111713,-0.440939665,-0.357744255,0.272767663,2.200034799,-0.575604393,-0.768252102,-0.395883352,-0.551816531
131,20,6,0,,,,,,,,,,,,,,,-0.6125830879999999,
137,27,6,0,,,-0.6877715809999999,,,,,,-0.49115256399999996,,,,,,-0.708084927,
133,23,6,1,0.005185561,-1.3084923000000002,1.716877211,-0.287086293,-1.546608442,,-1.505585144,-1.2833976999999999,3.396009908,0.275614168,,,1.989099876,-1.507164716,0.308897336,-0.448258627
134,24,6,0,-0.295284366,-0.40453673799999995,-0.667114443,-0.7131762759999999,-1.253806558,,,-1.185315367,-0.40725359200000005,-0.43837739600000003,-0.43191318100000003,-0.667084356,-1.030018326,-1.004803567,,0.062802695
135,25,6,0,,,,,,,,,,,,-1.160769041,,,,
136,26,6,1,,-1.71910388,,,,,,,,,,-1.117444265,,,,
127,14,6,0,,0.21366688399999997,,0.800543353,1.4251798690000002,,-0.560418382,-0.543537142,,-0.5226694129999999,0.61530843,-0.249927592,,,-0.448392426,-0.516397466
132,22,6,1,5.8889963739999995,-1.204088099,1.062563174,19.09518675,,,1.223410138,-0.49273952200000004,11.07513002,7.426580856,5.4246717339999995,2.08965974,15.37597315,-0.9520616690000001,8.781040697,0.275711222
126,13,6,0,-0.771084522,-0.756190732,,-0.96112675,-0.964342771,0.284800283,-1.765102763,-1.3968100419999998,-0.480150963,-0.45825098200000003,-0.946244642,-0.682374809,-0.953884444,-1.254731474,-0.63936799,-1.0802936490000001
120,7,6,0,1.236983515,2.934206952,1.4676710569999998,-1.313385468,0.010193299999999999,0.794557133,0.34909949100000004,1.6780205719999999,1.471462351,0.401531111,2.547246726,,0.056976587999999995,1.140549705,1.8913116419999998,
124,11,6,0,1.5301835,-0.861696328,,0.267770763,0.6752965670000001,,0.223828766,,2.9945516160000003,2.560119827,-0.381858865,,-0.515612587,0.086748691,0.8515123659999999,0.709772917
123,10,6,0,,,,,,-1.643686775,,,,,-0.652263871,,,,-0.533531546,
122,9,6,0,-0.25281766,0.477866248,,-0.11344858199999999,1.744202965,-0.0068215640000000004,-0.461419499,0.508332605,-0.43860043200000004,-0.483145726,-0.230623298,-0.358015953,-0.246594593,0.682683457,-0.444475745,1.11726157
121,8,6,0,0.320880677,-0.320072271,,0.02901059,0.440442059,1.067652234,1.176167309,-0.040428684,-0.448518075,-0.395780089,0.021162562000000003,-0.280091937,0.61186966,0.5018173429999999,-0.311496907,0.739009005
119,6,6,0,0.054304617,0.013163365,-0.609198012,-0.21661293399999998,-0.063796952,,,-0.331872808,-0.38519163,-0.33654181200000005,0.153876601,-0.614399252,-0.081254345,,,-0.322040654
118,5,6,0,-1.2163900970000001,-0.5283413570000001,-0.659813481,-0.244149824,-1.2443841979999999,,,-1.147329657,-0.4028073,,-0.658018652,-0.380799141,-1.235665863,-1.320755101,-0.461099111,-1.048915947
117,4,6,0,0.874138372,-0.419558626,,-0.352139475,-0.127252965,,0.32309726699999997,0.8459861940000001,-0.40902508200000004,-0.369482828,,-0.055957877,1.136009477,0.38645433799999995,,0.742888867
116,3,6,0,-0.018379832,,-0.626902085,,3.750734243,,-0.404611686,1.116850967,-0.38539281799999997,-0.07065104700000001,1.027200332,,1.507828791,2.7681202110000003,0.129445416,3.4322176189999998
115,2,6,0,4.103381897,5.656632544,,7.150960285,-0.020531787,-1.267415524,,,-0.34383915600000003,-0.49410049799999994,13.18019606,1.945061065,0.292142781,0.9182084840000001,0.517738656,5.6426737760000005
114,1,6,0,0.143213199,-0.454825374,-0.198659563,,,0.40123197299999996,,0.25755764600000003,0.006903156,,0.09129205800000001,0.310832641,-0.047325609000000005,0.530147171,,
138,29,6,0,,-1.723044622,,,,1.211809444,-1.662888876,,-0.460596371,,-1.465969565,,-1.7473422369999998,,,
125,12,6,0,-0.032966052999999995,-0.09974085099999999,-0.614643815,1.699738246,3.453091464,2.103057074,3.181641492,1.498460256,-0.396394075,-0.375687145,-0.656698099,0.294227611,-0.10499712800000001,-0.10501813800000001,,1.220305708
139,30,6,0,,,,,-0.355903925,-0.7264965309999999,,,,,0.502824155,,,,,
