\boolfalse {citerequest}\boolfalse {citetracker}\boolfalse {pagetracker}\boolfalse {backtracker}\relax 
\defcounter {refsection}{0}\relax 
\beamer@endinputifotherversion {3.36pt}
\defcounter {refsection}{0}\relax 
\beamer@sectionintoc {1}{General overview}{3}{0}{1}
\defcounter {refsection}{0}\relax 
\beamer@sectionintoc {2}{Predictive models}{4}{0}{2}
\defcounter {refsection}{0}\relax 
\beamer@sectionintoc {3}{Descriptive models}{13}{0}{3}
